%YAML 1.1
%TAG !u! tag:unity3d.com,2011:
--- !u!114 &11400000
MonoBehaviour:
  m_ObjectHideFlags: 0
  m_PrefabParentObject: {fileID: 0}
  m_PrefabInternal: {fileID: 0}
  m_GameObject: {fileID: 0}
  m_Enabled: 1
  m_EditorHideFlags: 0
  m_Script: {fileID: 323110133, guid: 09c9b883b79ef864a99683bb36c5776d, type: 3}
  m_Name: SteamController
  m_EditorClassIdentifier: 
  controllerName: Steam Controller
  editorControllerName: Steam Controller (non-native)
  description: Steam emulated controller
  controllerGuid: 2694f4b9-9d84-4f55-9ee8-78fbba744b7d
  templateGuids:
  - 83b427e4-086f-47f3-bb06-be266abd1ca5
  hideInLists: 1
  elementIdentifiers:
  - _id: 0
    _name: Left Stick X
    _elementType: 0
    _compoundElementType: 0
  - _id: 1
    _name: Left Stick Y
    _elementType: 0
    _compoundElementType: 0
  - _id: 2
    _name: Right Stick X
    _elementType: 0
    _compoundElementType: 0
  - _id: 3
    _name: Right Stick Y
    _elementType: 0
    _compoundElementType: 0
  - _id: 4
    _name: Left Trigger
    _elementType: 0
    _compoundElementType: 0
  - _id: 5
    _name: Right Trigger
    _elementType: 0
    _compoundElementType: 0
  - _id: 6
    _name: A
    _elementType: 1
    _compoundElementType: 0
  - _id: 7
    _name: B
    _elementType: 1
    _compoundElementType: 0
  - _id: 8
    _name: X
    _elementType: 1
    _compoundElementType: 0
  - _id: 9
    _name: Y
    _elementType: 1
    _compoundElementType: 0
  - _id: 10
    _name: Left Shoulder
    _elementType: 1
    _compoundElementType: 0
  - _id: 11
    _name: Right Shoulder
    _elementType: 1
    _compoundElementType: 0
  - _id: 12
    _name: Select
    _elementType: 1
    _compoundElementType: 0
  - _id: 13
    _name: Start
    _elementType: 1
    _compoundElementType: 0
  - _id: 14
    _name: Left Stick Button
    _elementType: 1
    _compoundElementType: 0
  - _id: 15
    _name: Right Stick Button
    _elementType: 1
    _compoundElementType: 0
  - _id: 16
    _name: D-Pad Up
    _elementType: 1
    _compoundElementType: 0
  - _id: 17
    _name: D-Pad Right
    _elementType: 1
    _compoundElementType: 0
  - _id: 18
    _name: D-Pad Down
    _elementType: 1
    _compoundElementType: 0
  - _id: 19
    _name: D-Pad Left
    _elementType: 1
    _compoundElementType: 0
  - _id: 20
    _name: Left Stick
    _elementType: 100
    _compoundElementType: 0
  - _id: 21
    _name: Right Stick
    _elementType: 100
    _compoundElementType: 0
  compoundElements:
  - type: 0
    elementIdentifier: 20
    componentElementIdentifiers: 0000000001000000
  - type: 0
    elementIdentifier: 21
    componentElementIdentifiers: 0200000003000000
  directInput:
    description: 
    matchingCriteria:
      axisCount: 0
      buttonCount: 0
      disabled: 0
      tag: 
      hatCount: 0
      productName_useRegex: 0
      productName: []
      productGUID: []
      productId: 
      deviceType: 0
    elements:
      axes: []
      buttons: []
    variants: []
  rawInput:
    description: 
    matchingCriteria:
      axisCount: 0
      buttonCount: 0
      disabled: 0
      tag: 
      hatCount: 0
      productName_useRegex: 0
      productName: []
      productGUID: []
      productId: 
      deviceType: 0
    elements:
      axes: []
      buttons: []
    variants: []
  xInput:
    description: 
    matchingCriteria:
      axisCount: 0
      buttonCount: 0
      disabled: 0
      tag: 
      subType: 
    elements:
      axes: []
      buttons: []
    variants: []
  osx:
    description: 
    matchingCriteria:
      axisCount: 6
      buttonCount: 15
      disabled: 0
      tag: 
      hatCount: 0
      productName_useRegex: 0
      productName: []
      manufacturer: []
      productId: fc110000
      vendorId: de280000
    elements:
      axes:
      - elementIdentifier: 0
        sourceType: 1
        sourceStick: 0
        sourceAxis: 1
        sourceOtherAxis: 0
        sourceAxisRange: 0
        invert: 0
        axisDeadZone: 0.15
        calibrateAxis: 0
        axisZero: 0
        axisMin: -1
        axisMax: 1
        axisInfo:
          _dataFormat: 0
          _excludeFromPolling: 0
        sourceButton: 0
        buttonAxisContribution: 0
        sourceHat: 0
        sourceHatDirection: 0
        sourceHatRange: 0
      - elementIdentifier: 1
        sourceType: 1
        sourceStick: 0
        sourceAxis: 2
        sourceOtherAxis: 0
        sourceAxisRange: 0
        invert: 1
        axisDeadZone: 0.15
        calibrateAxis: 0
        axisZero: 0
        axisMin: -1
        axisMax: 1
        axisInfo:
          _dataFormat: 0
          _excludeFromPolling: 0
        sourceButton: 0
        buttonAxisContribution: 0
        sourceHat: 0
        sourceHatDirection: 0
        sourceHatRange: 0
      - elementIdentifier: 2
        sourceType: 1
        sourceStick: 1
        sourceAxis: 3
        sourceOtherAxis: 0
        sourceAxisRange: 0
        invert: 0
        axisDeadZone: 0.15
        calibrateAxis: 0
        axisZero: 0
        axisMin: -1
        axisMax: 1
        axisInfo:
          _dataFormat: 0
          _excludeFromPolling: 0
        sourceButton: 0
        buttonAxisContribution: 0
        sourceHat: 0
        sourceHatDirection: 0
        sourceHatRange: 0
      - elementIdentifier: 3
        sourceType: 1
        sourceStick: 1
        sourceAxis: 3
        sourceOtherAxis: 1
        sourceAxisRange: 0
        invert: 1
        axisDeadZone: 0.15
        calibrateAxis: 0
        axisZero: 0
        axisMin: -1
        axisMax: 1
        axisInfo:
          _dataFormat: 0
          _excludeFromPolling: 0
        sourceButton: 0
        buttonAxisContribution: 0
        sourceHat: 0
        sourceHatDirection: 0
        sourceHatRange: 0
      - elementIdentifier: 4
        sourceType: 1
        sourceStick: 2
        sourceAxis: 3
        sourceOtherAxis: 0
        sourceAxisRange: 0
        invert: 0
        axisDeadZone: 0.1
        calibrateAxis: 1
        axisZero: -1
        axisMin: -1
        axisMax: 1
        axisInfo:
          _dataFormat: 0
          _excludeFromPolling: 0
        sourceButton: 0
        buttonAxisContribution: 0
        sourceHat: 0
        sourceHatDirection: 0
        sourceHatRange: 0
      - elementIdentifier: 5
        sourceType: 1
        sourceStick: 2
        sourceAxis: 3
        sourceOtherAxis: 1
        sourceAxisRange: 0
        invert: 0
        axisDeadZone: 0.1
        calibrateAxis: 1
        axisZero: -1
        axisMin: -1
        axisMax: 1
        axisInfo:
          _dataFormat: 0
          _excludeFromPolling: 0
        sourceButton: 0
        buttonAxisContribution: 0
        sourceHat: 0
        sourceHatDirection: 0
        sourceHatRange: 0
      buttons:
      - elementIdentifier: 6
        sourceType: 0
        sourceButton: 0
        sourceStick: 0
        sourceAxis: 0
        sourceOtherAxis: 0
        sourceAxisPole: 0
        axisDeadZone: 0
        sourceHat: 0
        sourceHatType: 0
        sourceHatDirection: 0
        requireMultipleButtons: 0
        requiredButtons: 
        ignoreIfButtonsActive: 0
        ignoreIfButtonsActiveButtons: 
        buttonInfo:
          _excludeFromPolling: 0
          _isPressureSensitive: 0
      - elementIdentifier: 7
        sourceType: 0
        sourceButton: 1
        sourceStick: 0
        sourceAxis: 0
        sourceOtherAxis: 0
        sourceAxisPole: 0
        axisDeadZone: 0
        sourceHat: 0
        sourceHatType: 0
        sourceHatDirection: 0
        requireMultipleButtons: 0
        requiredButtons: 
        ignoreIfButtonsActive: 0
        ignoreIfButtonsActiveButtons: 
        buttonInfo:
          _excludeFromPolling: 0
          _isPressureSensitive: 0
      - elementIdentifier: 8
        sourceType: 0
        sourceButton: 2
        sourceStick: 0
        sourceAxis: 0
        sourceOtherAxis: 0
        sourceAxisPole: 0
        axisDeadZone: 0
        sourceHat: 0
        sourceHatType: 0
        sourceHatDirection: 0
        requireMultipleButtons: 0
        requiredButtons: 
        ignoreIfButtonsActive: 0
        ignoreIfButtonsActiveButtons: 
        buttonInfo:
          _excludeFromPolling: 0
          _isPressureSensitive: 0
      - elementIdentifier: 9
        sourceType: 0
        sourceButton: 3
        sourceStick: 0
        sourceAxis: 0
        sourceOtherAxis: 0
        sourceAxisPole: 0
        axisDeadZone: 0
        sourceHat: 0
        sourceHatType: 0
        sourceHatDirection: 0
        requireMultipleButtons: 0
        requiredButtons: 
        ignoreIfButtonsActive: 0
        ignoreIfButtonsActiveButtons: 
        buttonInfo:
          _excludeFromPolling: 0
          _isPressureSensitive: 0
      - elementIdentifier: 10
        sourceType: 0
        sourceButton: 4
        sourceStick: 0
        sourceAxis: 0
        sourceOtherAxis: 0
        sourceAxisPole: 0
        axisDeadZone: 0
        sourceHat: 0
        sourceHatType: 0
        sourceHatDirection: 0
        requireMultipleButtons: 0
        requiredButtons: 
        ignoreIfButtonsActive: 0
        ignoreIfButtonsActiveButtons: 
        buttonInfo:
          _excludeFromPolling: 0
          _isPressureSensitive: 0
      - elementIdentifier: 11
        sourceType: 0
        sourceButton: 5
        sourceStick: 0
        sourceAxis: 0
        sourceOtherAxis: 0
        sourceAxisPole: 0
        axisDeadZone: 0
        sourceHat: 0
        sourceHatType: 0
        sourceHatDirection: 0
        requireMultipleButtons: 0
        requiredButtons: 
        ignoreIfButtonsActive: 0
        ignoreIfButtonsActiveButtons: 
        buttonInfo:
          _excludeFromPolling: 0
          _isPressureSensitive: 0
      - elementIdentifier: 12
        sourceType: 0
        sourceButton: 9
        sourceStick: 0
        sourceAxis: 0
        sourceOtherAxis: 0
        sourceAxisPole: 0
        axisDeadZone: 0
        sourceHat: 0
        sourceHatType: 0
        sourceHatDirection: 0
        requireMultipleButtons: 0
        requiredButtons: 
        ignoreIfButtonsActive: 0
        ignoreIfButtonsActiveButtons: 
        buttonInfo:
          _excludeFromPolling: 0
          _isPressureSensitive: 0
      - elementIdentifier: 13
        sourceType: 0
        sourceButton: 8
        sourceStick: 0
        sourceAxis: 0
        sourceOtherAxis: 0
        sourceAxisPole: 0
        axisDeadZone: 0
        sourceHat: 0
        sourceHatType: 0
        sourceHatDirection: 0
        requireMultipleButtons: 0
        requiredButtons: 
        ignoreIfButtonsActive: 0
        ignoreIfButtonsActiveButtons: 
        buttonInfo:
          _excludeFromPolling: 0
          _isPressureSensitive: 0
      - elementIdentifier: 14
        sourceType: 0
        sourceButton: 6
        sourceStick: 0
        sourceAxis: 0
        sourceOtherAxis: 0
        sourceAxisPole: 0
        axisDeadZone: 0
        sourceHat: 0
        sourceHatType: 0
        sourceHatDirection: 0
        requireMultipleButtons: 0
        requiredButtons: 
        ignoreIfButtonsActive: 0
        ignoreIfButtonsActiveButtons: 
        buttonInfo:
          _excludeFromPolling: 0
          _isPressureSensitive: 0
      - elementIdentifier: 15
        sourceType: 0
        sourceButton: 7
        sourceStick: 0
        sourceAxis: 0
        sourceOtherAxis: 0
        sourceAxisPole: 0
        axisDeadZone: 0
        sourceHat: 0
        sourceHatType: 0
        sourceHatDirection: 0
        requireMultipleButtons: 0
        requiredButtons: 
        ignoreIfButtonsActive: 0
        ignoreIfButtonsActiveButtons: 
        buttonInfo:
          _excludeFromPolling: 0
          _isPressureSensitive: 0
      - elementIdentifier: 16
        sourceType: 0
        sourceButton: 11
        sourceStick: 0
        sourceAxis: 0
        sourceOtherAxis: 0
        sourceAxisPole: 0
        axisDeadZone: 0
        sourceHat: 0
        sourceHatType: 0
        sourceHatDirection: 0
        requireMultipleButtons: 0
        requiredButtons: 
        ignoreIfButtonsActive: 0
        ignoreIfButtonsActiveButtons: 
        buttonInfo:
          _excludeFromPolling: 0
          _isPressureSensitive: 0
      - elementIdentifier: 17
        sourceType: 0
        sourceButton: 14
        sourceStick: 0
        sourceAxis: 0
        sourceOtherAxis: 0
        sourceAxisPole: 0
        axisDeadZone: 0
        sourceHat: 0
        sourceHatType: 0
        sourceHatDirection: 0
        requireMultipleButtons: 0
        requiredButtons: 
        ignoreIfButtonsActive: 0
        ignoreIfButtonsActiveButtons: 
        buttonInfo:
          _excludeFromPolling: 0
          _isPressureSensitive: 0
      - elementIdentifier: 18
        sourceType: 0
        sourceButton: 12
        sourceStick: 0
        sourceAxis: 0
        sourceOtherAxis: 0
        sourceAxisPole: 0
        axisDeadZone: 0
        sourceHat: 0
        sourceHatType: 0
        sourceHatDirection: 0
        requireMultipleButtons: 0
        requiredButtons: 
        ignoreIfButtonsActive: 0
        ignoreIfButtonsActiveButtons: 
        buttonInfo:
          _excludeFromPolling: 0
          _isPressureSensitive: 0
      - elementIdentifier: 19
        sourceType: 0
        sourceButton: 13
        sourceStick: 0
        sourceAxis: 0
        sourceOtherAxis: 0
        sourceAxisPole: 0
        axisDeadZone: 0
        sourceHat: 0
        sourceHatType: 0
        sourceHatDirection: 0
        requireMultipleButtons: 0
        requiredButtons: 
        ignoreIfButtonsActive: 0
        ignoreIfButtonsActiveButtons: 
        buttonInfo:
          _excludeFromPolling: 0
          _isPressureSensitive: 0
    variants: []
  linux:
    description: 
    matchingCriteria:
      axisCount: 6
      buttonCount: 11
      disabled: 0
      tag: 
      hatCount: 1
      manufacturer_useRegex: 0
      productName_useRegex: 0
      systemName_useRegex: 0
      manufacturer: []
      productName: []
      systemName: []
      productGUID:
      - 11fc28de
    elements:
      axes:
      - elementIdentifier: 0
        sourceType: 1
        sourceAxis: 0
        sourceAxisRange: 0
        invert: 0
        axisDeadZone: 0.15
        calibrateAxis: 0
        axisZero: 0
        axisMin: 0
        axisMax: 0
        axisInfo:
          _dataFormat: 0
          _excludeFromPolling: 0
        sourceButton: 0
        buttonAxisContribution: 0
        sourceHat: 0
        sourceHatDirection: 0
        sourceHatRange: 0
      - elementIdentifier: 1
        sourceType: 1
        sourceAxis: 1
        sourceAxisRange: 0
        invert: 1
        axisDeadZone: 0.15
        calibrateAxis: 0
        axisZero: 0
        axisMin: 0
        axisMax: 0
        axisInfo:
          _dataFormat: 0
          _excludeFromPolling: 0
        sourceButton: 0
        buttonAxisContribution: 0
        sourceHat: 0
        sourceHatDirection: 0
        sourceHatRange: 0
      - elementIdentifier: 2
        sourceType: 1
        sourceAxis: 3
        sourceAxisRange: 0
        invert: 0
        axisDeadZone: 0.15
        calibrateAxis: 0
        axisZero: 0
        axisMin: 0
        axisMax: 0
        axisInfo:
          _dataFormat: 0
          _excludeFromPolling: 0
        sourceButton: 0
        buttonAxisContribution: 0
        sourceHat: 0
        sourceHatDirection: 0
        sourceHatRange: 0
      - elementIdentifier: 3
        sourceType: 1
        sourceAxis: 4
        sourceAxisRange: 0
        invert: 1
        axisDeadZone: 0.15
        calibrateAxis: 0
        axisZero: 0
        axisMin: 0
        axisMax: 0
        axisInfo:
          _dataFormat: 0
          _excludeFromPolling: 0
        sourceButton: 0
        buttonAxisContribution: 0
        sourceHat: 0
        sourceHatDirection: 0
        sourceHatRange: 0
      - elementIdentifier: 4
        sourceType: 1
        sourceAxis: 2
        sourceAxisRange: 0
        invert: 0
        axisDeadZone: 0.05
        calibrateAxis: 1
        axisZero: -1
        axisMin: -1
        axisMax: 1
        axisInfo:
          _dataFormat: 0
          _excludeFromPolling: 0
        sourceButton: 0
        buttonAxisContribution: 0
        sourceHat: 0
        sourceHatDirection: 0
        sourceHatRange: 0
      - elementIdentifier: 5
        sourceType: 1
        sourceAxis: 5
        sourceAxisRange: 0
        invert: 0
        axisDeadZone: 0.05
        calibrateAxis: 1
        axisZero: -1
        axisMin: -1
        axisMax: 1
        axisInfo:
          _dataFormat: 0
          _excludeFromPolling: 0
        sourceButton: 0
        buttonAxisContribution: 0
        sourceHat: 0
        sourceHatDirection: 0
        sourceHatRange: 0
      buttons:
      - elementIdentifier: 6
        sourceType: 0
        sourceButton: 0
        sourceAxis: 0
        sourceAxisPole: 0
        axisDeadZone: 0
        sourceHat: 0
        sourceHatType: 0
        sourceHatDirection: 0
        requireMultipleButtons: 0
        requiredButtons: 
        ignoreIfButtonsActive: 0
        ignoreIfButtonsActiveButtons: 
        buttonInfo:
          _excludeFromPolling: 0
          _isPressureSensitive: 0
      - elementIdentifier: 7
        sourceType: 0
        sourceButton: 1
        sourceAxis: 0
        sourceAxisPole: 0
        axisDeadZone: 0
        sourceHat: 0
        sourceHatType: 0
        sourceHatDirection: 0
        requireMultipleButtons: 0
        requiredButtons: 
        ignoreIfButtonsActive: 0
        ignoreIfButtonsActiveButtons: 
        buttonInfo:
          _excludeFromPolling: 0
          _isPressureSensitive: 0
      - elementIdentifier: 8
        sourceType: 0
        sourceButton: 2
        sourceAxis: 0
        sourceAxisPole: 0
        axisDeadZone: 0
        sourceHat: 0
        sourceHatType: 0
        sourceHatDirection: 0
        requireMultipleButtons: 0
        requiredButtons: 
        ignoreIfButtonsActive: 0
        ignoreIfButtonsActiveButtons: 
        buttonInfo:
          _excludeFromPolling: 0
          _isPressureSensitive: 0
      - elementIdentifier: 9
        sourceType: 0
        sourceButton: 3
        sourceAxis: 0
        sourceAxisPole: 0
        axisDeadZone: 0
        sourceHat: 0
        sourceHatType: 0
        sourceHatDirection: 0
        requireMultipleButtons: 0
        requiredButtons: 
        ignoreIfButtonsActive: 0
        ignoreIfButtonsActiveButtons: 
        buttonInfo:
          _excludeFromPolling: 0
          _isPressureSensitive: 0
      - elementIdentifier: 10
        sourceType: 0
        sourceButton: 4
        sourceAxis: 0
        sourceAxisPole: 0
        axisDeadZone: 0
        sourceHat: 0
        sourceHatType: 0
        sourceHatDirection: 0
        requireMultipleButtons: 0
        requiredButtons: 
        ignoreIfButtonsActive: 0
        ignoreIfButtonsActiveButtons: 
        buttonInfo:
          _excludeFromPolling: 0
          _isPressureSensitive: 0
      - elementIdentifier: 11
        sourceType: 0
        sourceButton: 5
        sourceAxis: 0
        sourceAxisPole: 0
        axisDeadZone: 0
        sourceHat: 0
        sourceHatType: 0
        sourceHatDirection: 0
        requireMultipleButtons: 0
        requiredButtons: 
        ignoreIfButtonsActive: 0
        ignoreIfButtonsActiveButtons: 
        buttonInfo:
          _excludeFromPolling: 0
          _isPressureSensitive: 0
      - elementIdentifier: 12
        sourceType: 0
        sourceButton: 6
        sourceAxis: 0
        sourceAxisPole: 0
        axisDeadZone: 0
        sourceHat: 0
        sourceHatType: 0
        sourceHatDirection: 0
        requireMultipleButtons: 0
        requiredButtons: 
        ignoreIfButtonsActive: 0
        ignoreIfButtonsActiveButtons: 
        buttonInfo:
          _excludeFromPolling: 0
          _isPressureSensitive: 0
      - elementIdentifier: 13
        sourceType: 0
        sourceButton: 7
        sourceAxis: 0
        sourceAxisPole: 0
        axisDeadZone: 0
        sourceHat: 0
        sourceHatType: 0
        sourceHatDirection: 0
        requireMultipleButtons: 0
        requiredButtons: 
        ignoreIfButtonsActive: 0
        ignoreIfButtonsActiveButtons: 
        buttonInfo:
          _excludeFromPolling: 0
          _isPressureSensitive: 0
      - elementIdentifier: 14
        sourceType: 0
        sourceButton: 9
        sourceAxis: 0
        sourceAxisPole: 0
        axisDeadZone: 0
        sourceHat: 0
        sourceHatType: 0
        sourceHatDirection: 0
        requireMultipleButtons: 0
        requiredButtons: 
        ignoreIfButtonsActive: 0
        ignoreIfButtonsActiveButtons: 
        buttonInfo:
          _excludeFromPolling: 0
          _isPressureSensitive: 0
      - elementIdentifier: 15
        sourceType: 0
        sourceButton: 10
        sourceAxis: 0
        sourceAxisPole: 0
        axisDeadZone: 0
        sourceHat: 0
        sourceHatType: 0
        sourceHatDirection: 0
        requireMultipleButtons: 0
        requiredButtons: 
        ignoreIfButtonsActive: 0
        ignoreIfButtonsActiveButtons: 
        buttonInfo:
          _excludeFromPolling: 0
          _isPressureSensitive: 0
      - elementIdentifier: 16
        sourceType: 2
        sourceButton: 0
        sourceAxis: 0
        sourceAxisPole: 0
        axisDeadZone: 0
        sourceHat: 0
        sourceHatType: 0
        sourceHatDirection: 0
        requireMultipleButtons: 0
        requiredButtons: 
        ignoreIfButtonsActive: 0
        ignoreIfButtonsActiveButtons: 
        buttonInfo:
          _excludeFromPolling: 0
          _isPressureSensitive: 0
      - elementIdentifier: 17
        sourceType: 2
        sourceButton: 0
        sourceAxis: 0
        sourceAxisPole: 0
        axisDeadZone: 0
        sourceHat: 0
        sourceHatType: 0
        sourceHatDirection: 1
        requireMultipleButtons: 0
        requiredButtons: 
        ignoreIfButtonsActive: 0
        ignoreIfButtonsActiveButtons: 
        buttonInfo:
          _excludeFromPolling: 0
          _isPressureSensitive: 0
      - elementIdentifier: 18
        sourceType: 2
        sourceButton: 0
        sourceAxis: 0
        sourceAxisPole: 0
        axisDeadZone: 0
        sourceHat: 0
        sourceHatType: 0
        sourceHatDirection: 2
        requireMultipleButtons: 0
        requiredButtons: 
        ignoreIfButtonsActive: 0
        ignoreIfButtonsActiveButtons: 
        buttonInfo:
          _excludeFromPolling: 0
          _isPressureSensitive: 0
      - elementIdentifier: 19
        sourceType: 2
        sourceButton: 0
        sourceAxis: 0
        sourceAxisPole: 0
        axisDeadZone: 0
        sourceHat: 0
        sourceHatType: 0
        sourceHatDirection: 3
        requireMultipleButtons: 0
        requiredButtons: 
        ignoreIfButtonsActive: 0
        ignoreIfButtonsActiveButtons: 
        buttonInfo:
          _excludeFromPolling: 0
          _isPressureSensitive: 0
    variants: []
  windowsUWP:
    description: 
    matchingCriteria:
      axisCount: 0
      buttonCount: 0
      disabled: 0
      tag: 
      hatCount: 0
      manufacturer_useRegex: 0
      productName_useRegex: 0
      manufacturer: []
      productName: []
      productGUID: []
    elements:
      axes: []
      buttons: []
    variants: []
  fallback_Windows:
    description: 
    matchingCriteria:
      axisCount: 0
      buttonCount: 0
      disabled: 0
      tag: 
      alwaysMatch: 0
      productName_useRegex: 0
      productName: []
      matchUnityVersion: 0
      matchUnityVersion_min: 
      matchUnityVersion_max: 
    elements:
      axes: []
      buttons: []
    variants: []
  fallback_WindowsUWP:
    description: 
    matchingCriteria:
      axisCount: 0
      buttonCount: 0
      disabled: 0
      tag: 
      alwaysMatch: 0
      productName_useRegex: 0
      productName: []
      matchUnityVersion: 0
      matchUnityVersion_min: 
      matchUnityVersion_max: 
    elements:
      axes: []
      buttons: []
    variants: []
  fallback_OSX:
    description: 
    matchingCriteria:
      axisCount: 0
      buttonCount: 0
      disabled: 0
      tag: 
      alwaysMatch: 0
      productName_useRegex: 1
      productName:
      - Microsoft GamePad-[0-9]+
      - Microsoft StreamingGamePad-[0-9]+
      matchUnityVersion: 0
      matchUnityVersion_min: 
      matchUnityVersion_max: 
    elements:
      axes:
      - elementIdentifier: 0
        sourceType: 1
        sourceAxis: 1
        axisDeadZone: 0.15
        sourceButton: 0
        sourceKeyCode: 0
        customCalculation: {fileID: 0}
        customCalculationSourceData: []
        invert: 0
        sourceAxisRange: 0
        buttonAxisContribution: 0
        calibrateAxis: 0
        axisZero: 0
        axisMin: 0
        axisMax: 0
        axisInfo:
          _dataFormat: 0
          _excludeFromPolling: 0
      - elementIdentifier: 1
        sourceType: 1
        sourceAxis: 2
        axisDeadZone: 0.15
        sourceButton: 0
        sourceKeyCode: 0
        customCalculation: {fileID: 0}
        customCalculationSourceData: []
        invert: 1
        sourceAxisRange: 0
        buttonAxisContribution: 0
        calibrateAxis: 0
        axisZero: 0
        axisMin: 0
        axisMax: 0
        axisInfo:
          _dataFormat: 0
          _excludeFromPolling: 0
      - elementIdentifier: 2
        sourceType: 1
        sourceAxis: 3
        axisDeadZone: 0.15
        sourceButton: 0
        sourceKeyCode: 0
        customCalculation: {fileID: 0}
        customCalculationSourceData: []
        invert: 0
        sourceAxisRange: 0
        buttonAxisContribution: 0
        calibrateAxis: 0
        axisZero: 0
        axisMin: 0
        axisMax: 0
        axisInfo:
          _dataFormat: 0
          _excludeFromPolling: 0
      - elementIdentifier: 3
        sourceType: 1
        sourceAxis: 4
        axisDeadZone: 0.15
        sourceButton: 0
        sourceKeyCode: 0
        customCalculation: {fileID: 0}
        customCalculationSourceData: []
        invert: 1
        sourceAxisRange: 0
        buttonAxisContribution: 0
        calibrateAxis: 0
        axisZero: 0
        axisMin: 0
        axisMax: 0
        axisInfo:
          _dataFormat: 0
          _excludeFromPolling: 0
      - elementIdentifier: 4
        sourceType: 1
        sourceAxis: 5
        axisDeadZone: 0.05
        sourceButton: 0
        sourceKeyCode: 0
        customCalculation: {fileID: 0}
        customCalculationSourceData: []
        invert: 0
        sourceAxisRange: 0
        buttonAxisContribution: 0
        calibrateAxis: 1
        axisZero: -1
        axisMin: -1
        axisMax: 1
        axisInfo:
          _dataFormat: 0
          _excludeFromPolling: 0
      - elementIdentifier: 5
        sourceType: 1
        sourceAxis: 6
        axisDeadZone: 0.05
        sourceButton: 0
        sourceKeyCode: 0
        customCalculation: {fileID: 0}
        customCalculationSourceData: []
        invert: 0
        sourceAxisRange: 0
        buttonAxisContribution: 0
        calibrateAxis: 1
        axisZero: -1
        axisMin: -1
        axisMax: 1
        axisInfo:
          _dataFormat: 0
          _excludeFromPolling: 0
      buttons:
      - elementIdentifier: 6
        sourceType: 0
        sourceAxis: 0
        axisDeadZone: 0
        sourceButton: 17
        sourceKeyCode: 0
        customCalculation: {fileID: 0}
        customCalculationSourceData: []
        sourceAxisPole: 0
        unityHat_sourceAxis1: 0
        unityHat_sourceAxis2: 0
        unityHat_isActiveAxisValues1: {x: 0, y: 0}
        unityHat_isActiveAxisValues2: {x: 0, y: 0}
        unityHat_isActiveAxisValues3: {x: 0, y: 0}
        unityHat_zeroValues: {x: 0, y: 0}
        unityHat_checkNeverPressed: 0
        unityHat_neverPressedZeroValues: {x: 0, y: 0}
        requireMultipleButtons: 0
        requiredButtons: 
        ignoreIfButtonsActive: 0
        ignoreIfButtonsActiveButtons: 
        buttonInfo:
          _excludeFromPolling: 0
          _isPressureSensitive: 0
      - elementIdentifier: 7
        sourceType: 0
        sourceAxis: 0
        axisDeadZone: 0
        sourceButton: 18
        sourceKeyCode: 0
        customCalculation: {fileID: 0}
        customCalculationSourceData: []
        sourceAxisPole: 0
        unityHat_sourceAxis1: 0
        unityHat_sourceAxis2: 0
        unityHat_isActiveAxisValues1: {x: 0, y: 0}
        unityHat_isActiveAxisValues2: {x: 0, y: 0}
        unityHat_isActiveAxisValues3: {x: 0, y: 0}
        unityHat_zeroValues: {x: 0, y: 0}
        unityHat_checkNeverPressed: 0
        unityHat_neverPressedZeroValues: {x: 0, y: 0}
        requireMultipleButtons: 0
        requiredButtons: 
        ignoreIfButtonsActive: 0
        ignoreIfButtonsActiveButtons: 
        buttonInfo:
          _excludeFromPolling: 0
          _isPressureSensitive: 0
      - elementIdentifier: 8
        sourceType: 0
        sourceAxis: 0
        axisDeadZone: 0
        sourceButton: 19
        sourceKeyCode: 0
        customCalculation: {fileID: 0}
        customCalculationSourceData: []
        sourceAxisPole: 0
        unityHat_sourceAxis1: 0
        unityHat_sourceAxis2: 0
        unityHat_isActiveAxisValues1: {x: 0, y: 0}
        unityHat_isActiveAxisValues2: {x: 0, y: 0}
        unityHat_isActiveAxisValues3: {x: 0, y: 0}
        unityHat_zeroValues: {x: 0, y: 0}
        unityHat_checkNeverPressed: 0
        unityHat_neverPressedZeroValues: {x: 0, y: 0}
        requireMultipleButtons: 0
        requiredButtons: 
        ignoreIfButtonsActive: 0
        ignoreIfButtonsActiveButtons: 
        buttonInfo:
          _excludeFromPolling: 0
          _isPressureSensitive: 0
      - elementIdentifier: 9
        sourceType: 0
        sourceAxis: 0
        axisDeadZone: 0
        sourceButton: 20
        sourceKeyCode: 0
        customCalculation: {fileID: 0}
        customCalculationSourceData: []
        sourceAxisPole: 0
        unityHat_sourceAxis1: 0
        unityHat_sourceAxis2: 0
        unityHat_isActiveAxisValues1: {x: 0, y: 0}
        unityHat_isActiveAxisValues2: {x: 0, y: 0}
        unityHat_isActiveAxisValues3: {x: 0, y: 0}
        unityHat_zeroValues: {x: 0, y: 0}
        unityHat_checkNeverPressed: 0
        unityHat_neverPressedZeroValues: {x: 0, y: 0}
        requireMultipleButtons: 0
        requiredButtons: 
        ignoreIfButtonsActive: 0
        ignoreIfButtonsActiveButtons: 
        buttonInfo:
          _excludeFromPolling: 0
          _isPressureSensitive: 0
      - elementIdentifier: 10
        sourceType: 0
        sourceAxis: 0
        axisDeadZone: 0
        sourceButton: 14
        sourceKeyCode: 0
        customCalculation: {fileID: 0}
        customCalculationSourceData: []
        sourceAxisPole: 0
        unityHat_sourceAxis1: 0
        unityHat_sourceAxis2: 0
        unityHat_isActiveAxisValues1: {x: 0, y: 0}
        unityHat_isActiveAxisValues2: {x: 0, y: 0}
        unityHat_isActiveAxisValues3: {x: 0, y: 0}
        unityHat_zeroValues: {x: 0, y: 0}
        unityHat_checkNeverPressed: 0
        unityHat_neverPressedZeroValues: {x: 0, y: 0}
        requireMultipleButtons: 0
        requiredButtons: 
        ignoreIfButtonsActive: 0
        ignoreIfButtonsActiveButtons: 
        buttonInfo:
          _excludeFromPolling: 0
          _isPressureSensitive: 0
      - elementIdentifier: 11
        sourceType: 0
        sourceAxis: 0
        axisDeadZone: 0
        sourceButton: 15
        sourceKeyCode: 0
        customCalculation: {fileID: 0}
        customCalculationSourceData: []
        sourceAxisPole: 0
        unityHat_sourceAxis1: 0
        unityHat_sourceAxis2: 0
        unityHat_isActiveAxisValues1: {x: 0, y: 0}
        unityHat_isActiveAxisValues2: {x: 0, y: 0}
        unityHat_isActiveAxisValues3: {x: 0, y: 0}
        unityHat_zeroValues: {x: 0, y: 0}
        unityHat_checkNeverPressed: 0
        unityHat_neverPressedZeroValues: {x: 0, y: 0}
        requireMultipleButtons: 0
        requiredButtons: 
        ignoreIfButtonsActive: 0
        ignoreIfButtonsActiveButtons: 
        buttonInfo:
          _excludeFromPolling: 0
          _isPressureSensitive: 0
      - elementIdentifier: 12
        sourceType: 0
        sourceAxis: 0
        axisDeadZone: 0
        sourceButton: 11
        sourceKeyCode: 0
        customCalculation: {fileID: 0}
        customCalculationSourceData: []
        sourceAxisPole: 0
        unityHat_sourceAxis1: 0
        unityHat_sourceAxis2: 0
        unityHat_isActiveAxisValues1: {x: 0, y: 0}
        unityHat_isActiveAxisValues2: {x: 0, y: 0}
        unityHat_isActiveAxisValues3: {x: 0, y: 0}
        unityHat_zeroValues: {x: 0, y: 0}
        unityHat_checkNeverPressed: 0
        unityHat_neverPressedZeroValues: {x: 0, y: 0}
        requireMultipleButtons: 0
        requiredButtons: 
        ignoreIfButtonsActive: 0
        ignoreIfButtonsActiveButtons: 
        buttonInfo:
          _excludeFromPolling: 0
          _isPressureSensitive: 0
      - elementIdentifier: 13
        sourceType: 0
        sourceAxis: 0
        axisDeadZone: 0
        sourceButton: 10
        sourceKeyCode: 0
        customCalculation: {fileID: 0}
        customCalculationSourceData: []
        sourceAxisPole: 0
        unityHat_sourceAxis1: 0
        unityHat_sourceAxis2: 0
        unityHat_isActiveAxisValues1: {x: 0, y: 0}
        unityHat_isActiveAxisValues2: {x: 0, y: 0}
        unityHat_isActiveAxisValues3: {x: 0, y: 0}
        unityHat_zeroValues: {x: 0, y: 0}
        unityHat_checkNeverPressed: 0
        unityHat_neverPressedZeroValues: {x: 0, y: 0}
        requireMultipleButtons: 0
        requiredButtons: 
        ignoreIfButtonsActive: 0
        ignoreIfButtonsActiveButtons: 
        buttonInfo:
          _excludeFromPolling: 0
          _isPressureSensitive: 0
      - elementIdentifier: 14
        sourceType: 0
        sourceAxis: 0
        axisDeadZone: 0
        sourceButton: 12
        sourceKeyCode: 0
        customCalculation: {fileID: 0}
        customCalculationSourceData: []
        sourceAxisPole: 0
        unityHat_sourceAxis1: 0
        unityHat_sourceAxis2: 0
        unityHat_isActiveAxisValues1: {x: 0, y: 0}
        unityHat_isActiveAxisValues2: {x: 0, y: 0}
        unityHat_isActiveAxisValues3: {x: 0, y: 0}
        unityHat_zeroValues: {x: 0, y: 0}
        unityHat_checkNeverPressed: 0
        unityHat_neverPressedZeroValues: {x: 0, y: 0}
        requireMultipleButtons: 0
        requiredButtons: 
        ignoreIfButtonsActive: 0
        ignoreIfButtonsActiveButtons: 
        buttonInfo:
          _excludeFromPolling: 0
          _isPressureSensitive: 0
      - elementIdentifier: 15
        sourceType: 0
        sourceAxis: 0
        axisDeadZone: 0
        sourceButton: 13
        sourceKeyCode: 0
        customCalculation: {fileID: 0}
        customCalculationSourceData: []
        sourceAxisPole: 0
        unityHat_sourceAxis1: 0
        unityHat_sourceAxis2: 0
        unityHat_isActiveAxisValues1: {x: 0, y: 0}
        unityHat_isActiveAxisValues2: {x: 0, y: 0}
        unityHat_isActiveAxisValues3: {x: 0, y: 0}
        unityHat_zeroValues: {x: 0, y: 0}
        unityHat_checkNeverPressed: 0
        unityHat_neverPressedZeroValues: {x: 0, y: 0}
        requireMultipleButtons: 0
        requiredButtons: 
        ignoreIfButtonsActive: 0
        ignoreIfButtonsActiveButtons: 
        buttonInfo:
          _excludeFromPolling: 0
          _isPressureSensitive: 0
      - elementIdentifier: 16
        sourceType: 0
        sourceAxis: 0
        axisDeadZone: 0
        sourceButton: 6
        sourceKeyCode: 0
        customCalculation: {fileID: 0}
        customCalculationSourceData: []
        sourceAxisPole: 0
        unityHat_sourceAxis1: 0
        unityHat_sourceAxis2: 0
        unityHat_isActiveAxisValues1: {x: 0, y: 0}
        unityHat_isActiveAxisValues2: {x: 0, y: 0}
        unityHat_isActiveAxisValues3: {x: 0, y: 0}
        unityHat_zeroValues: {x: 0, y: 0}
        unityHat_checkNeverPressed: 0
        unityHat_neverPressedZeroValues: {x: 0, y: 0}
        requireMultipleButtons: 0
        requiredButtons: 
        ignoreIfButtonsActive: 0
        ignoreIfButtonsActiveButtons: 
        buttonInfo:
          _excludeFromPolling: 0
          _isPressureSensitive: 0
      - elementIdentifier: 17
        sourceType: 0
        sourceAxis: 0
        axisDeadZone: 0
        sourceButton: 9
        sourceKeyCode: 0
        customCalculation: {fileID: 0}
        customCalculationSourceData: []
        sourceAxisPole: 0
        unityHat_sourceAxis1: 0
        unityHat_sourceAxis2: 0
        unityHat_isActiveAxisValues1: {x: 0, y: 0}
        unityHat_isActiveAxisValues2: {x: 0, y: 0}
        unityHat_isActiveAxisValues3: {x: 0, y: 0}
        unityHat_zeroValues: {x: 0, y: 0}
        unityHat_checkNeverPressed: 0
        unityHat_neverPressedZeroValues: {x: 0, y: 0}
        requireMultipleButtons: 0
        requiredButtons: 
        ignoreIfButtonsActive: 0
        ignoreIfButtonsActiveButtons: 
        buttonInfo:
          _excludeFromPolling: 0
          _isPressureSensitive: 0
      - elementIdentifier: 18
        sourceType: 0
        sourceAxis: 0
        axisDeadZone: 0
        sourceButton: 7
        sourceKeyCode: 0
        customCalculation: {fileID: 0}
        customCalculationSourceData: []
        sourceAxisPole: 0
        unityHat_sourceAxis1: 0
        unityHat_sourceAxis2: 0
        unityHat_isActiveAxisValues1: {x: 0, y: 0}
        unityHat_isActiveAxisValues2: {x: 0, y: 0}
        unityHat_isActiveAxisValues3: {x: 0, y: 0}
        unityHat_zeroValues: {x: 0, y: 0}
        unityHat_checkNeverPressed: 0
        unityHat_neverPressedZeroValues: {x: 0, y: 0}
        requireMultipleButtons: 0
        requiredButtons: 
        ignoreIfButtonsActive: 0
        ignoreIfButtonsActiveButtons: 
        buttonInfo:
          _excludeFromPolling: 0
          _isPressureSensitive: 0
      - elementIdentifier: 19
        sourceType: 0
        sourceAxis: 0
        axisDeadZone: 0
        sourceButton: 8
        sourceKeyCode: 0
        customCalculation: {fileID: 0}
        customCalculationSourceData: []
        sourceAxisPole: 0
        unityHat_sourceAxis1: 0
        unityHat_sourceAxis2: 0
        unityHat_isActiveAxisValues1: {x: 0, y: 0}
        unityHat_isActiveAxisValues2: {x: 0, y: 0}
        unityHat_isActiveAxisValues3: {x: 0, y: 0}
        unityHat_zeroValues: {x: 0, y: 0}
        unityHat_checkNeverPressed: 0
        unityHat_neverPressedZeroValues: {x: 0, y: 0}
        requireMultipleButtons: 0
        requiredButtons: 
        ignoreIfButtonsActive: 0
        ignoreIfButtonsActiveButtons: 
        buttonInfo:
          _excludeFromPolling: 0
          _isPressureSensitive: 0
    variants: []
  fallback_Linux:
    description: 
    matchingCriteria:
      axisCount: 0
      buttonCount: 0
      disabled: 0
      tag: 
      alwaysMatch: 0
      productName_useRegex: 0
      productName: []
      matchUnityVersion: 0
      matchUnityVersion_min: 
      matchUnityVersion_max: 
    elements:
      axes: []
      buttons: []
    variants: []
  fallback_Linux_PreConfigured:
    description: 
    matchingCriteria:
      axisCount: 0
      buttonCount: 0
      disabled: 0
      tag: 
      alwaysMatch: 0
      productName_useRegex: 0
      productName: []
      matchUnityVersion: 0
      matchUnityVersion_min: 
      matchUnityVersion_max: 
    elements:
      axes: []
      buttons: []
    variants: []
  fallback_Android:
    description: 
    matchingCriteria:
      axisCount: 0
      buttonCount: 0
      disabled: 0
      tag: 
      alwaysMatch: 0
      productName_useRegex: 0
      productName: []
      matchUnityVersion: 0
      matchUnityVersion_min: 
      matchUnityVersion_max: 
    elements:
      axes: []
      buttons: []
    variants: []
  fallback_iOS:
    description: 
    matchingCriteria:
      axisCount: 0
      buttonCount: 0
      disabled: 0
      tag: 
      alwaysMatch: 0
      productName_useRegex: 0
      productName: []
      matchUnityVersion: 0
      matchUnityVersion_min: 
      matchUnityVersion_max: 
    elements:
      axes: []
      buttons: []
    variants: []
  fallback_Blackberry:
    description: 
    matchingCriteria:
      axisCount: 0
      buttonCount: 0
      disabled: 0
      tag: 
      alwaysMatch: 0
      productName_useRegex: 0
      productName: []
      matchUnityVersion: 0
      matchUnityVersion_min: 
      matchUnityVersion_max: 
    elements:
      axes: []
      buttons: []
    variants: []
  fallback_WindowsPhone8:
    description: 
    matchingCriteria:
      axisCount: 0
      buttonCount: 0
      disabled: 0
      tag: 
      alwaysMatch: 0
      productName_useRegex: 0
      productName: []
      matchUnityVersion: 0
      matchUnityVersion_min: 
      matchUnityVersion_max: 
    elements:
      axes: []
      buttons: []
    variants: []
  fallback_XBox360:
    description: 
    matchingCriteria:
      axisCount: 0
      buttonCount: 0
      disabled: 0
      tag: 
      alwaysMatch: 0
      productName_useRegex: 0
      productName: []
      matchUnityVersion: 0
      matchUnityVersion_min: 
      matchUnityVersion_max: 
    elements:
      axes: []
      buttons: []
    variants: []
  fallback_XBoxOne:
    description: 
    matchingCriteria:
      axisCount: 0
      buttonCount: 0
      disabled: 0
      tag: 
      alwaysMatch: 0
      productName_useRegex: 0
      productName: []
      matchUnityVersion: 0
      matchUnityVersion_min: 
      matchUnityVersion_max: 
    elements:
      axes: []
      buttons: []
    variants: []
  fallback_PS3:
    description: 
    matchingCriteria:
      axisCount: 0
      buttonCount: 0
      disabled: 0
      tag: 
      alwaysMatch: 0
      productName_useRegex: 0
      productName: []
      matchUnityVersion: 0
      matchUnityVersion_min: 
      matchUnityVersion_max: 
    elements:
      axes: []
      buttons: []
    variants: []
  fallback_PS4:
    description: 
    matchingCriteria:
      axisCount: 0
      buttonCount: 0
      disabled: 0
      tag: 
      alwaysMatch: 0
      productName_useRegex: 0
      productName: []
      matchUnityVersion: 0
      matchUnityVersion_min: 
      matchUnityVersion_max: 
    elements:
      axes: []
      buttons: []
    variants: []
  fallback_PSM:
    description: 
    matchingCriteria:
      axisCount: 0
      buttonCount: 0
      disabled: 0
      tag: 
      alwaysMatch: 0
      productName_useRegex: 0
      productName: []
      matchUnityVersion: 0
      matchUnityVersion_min: 
      matchUnityVersion_max: 
    elements:
      axes: []
      buttons: []
    variants: []
  fallback_PSVita:
    description: 
    matchingCriteria:
      axisCount: 0
      buttonCount: 0
      disabled: 0
      tag: 
      alwaysMatch: 0
      productName_useRegex: 0
      productName: []
      matchUnityVersion: 0
      matchUnityVersion_min: 
      matchUnityVersion_max: 
    elements:
      axes: []
      buttons: []
    variants: []
  fallback_Wii:
    description: 
    matchingCriteria:
      axisCount: 0
      buttonCount: 0
      disabled: 0
      tag: 
      alwaysMatch: 0
      productName_useRegex: 0
      productName: []
      matchUnityVersion: 0
      matchUnityVersion_min: 
      matchUnityVersion_max: 
    elements:
      axes: []
      buttons: []
    variants: []
  fallback_WiiU:
    description: 
    matchingCriteria:
      axisCount: 0
      buttonCount: 0
      disabled: 0
      tag: 
      alwaysMatch: 0
      productName_useRegex: 0
      productName: []
      matchUnityVersion: 0
      matchUnityVersion_min: 
      matchUnityVersion_max: 
    elements:
      axes: []
      buttons: []
    variants: []
  fallback_AmazonFireTV:
    description: 
    matchingCriteria:
      axisCount: 0
      buttonCount: 0
      disabled: 0
      tag: 
      alwaysMatch: 0
      productName_useRegex: 0
      productName: []
      matchUnityVersion: 0
      matchUnityVersion_min: 
      matchUnityVersion_max: 
    elements:
      axes: []
      buttons: []
    variants: []
  fallback_RazerForgeTV:
    description: 
    matchingCriteria:
      axisCount: 0
      buttonCount: 0
      disabled: 0
      tag: 
      alwaysMatch: 0
      productName_useRegex: 0
      productName: []
      matchUnityVersion: 0
      matchUnityVersion_min: 
      matchUnityVersion_max: 
    elements:
      axes: []
      buttons: []
    variants: []
  webGL:
    description: 
    matchingCriteria:
      axisCount: 0
      buttonCount: 0
      disabled: 0
      tag: 
      alwaysMatch: 0
      productName_useRegex: 0
      productName: []
      productGUID: []
      mapping: 
      elementCount: []
      clientInfo: []
    elements:
      axes: []
      buttons: []
    variants: []
  ouya:
    description: 
    matchingCriteria:
      axisCount: 0
      buttonCount: 0
      disabled: 0
      tag: 
      alwaysMatch: 0
    elements:
      axes: []
      buttons: []
    variants: []
  xboxOne:
    description: 
    matchingCriteria:
      axisCount: 0
      buttonCount: 0
      disabled: 0
      tag: 
      alwaysMatch: 0
      productName_useRegex: 0
      productName: []
    elements:
      axes: []
      buttons: []
    variants: []
  ps4:
    description: 
    matchingCriteria:
      axisCount: 0
      buttonCount: 0
      disabled: 0
      tag: 
      alwaysMatch: 0
      productName_useRegex: 0
      productName: []
    elements:
      axes: []
      buttons: []
    variants: []
  nintendoSwitch:
    description: 
    matchingCriteria:
      axisCount: 0
      buttonCount: 0
      disabled: 0
      tag: 
      alwaysMatch: 0
      productName_useRegex: 0
      productName: []
    elements:
      axes: []
      buttons: []
    variants: []
  internalDriver:
    description: 
    matchingCriteria:
      axisCount: 0
      buttonCount: 0
      disabled: 0
      tag: 
      alwaysMatch: 0
      productName_useRegex: 0
      productName: []
      vidPid: []
      hatCount: 0
    elements:
      axes: []
      buttons: []
    variants: []
  sdl2_Linux:
    description: 
    matchingCriteria:
      axisCount: 0
      buttonCount: 0
      disabled: 0
      tag: 
      hatCount: 0
      manufacturer_useRegex: 0
      productName_useRegex: 0
      systemName_useRegex: 0
      manufacturer: []
      productName: []
      systemName: []
      productGUID: []
    elements:
      axes: []
      buttons: []
    variants: []
  sdl2_Windows:
    description: 
    matchingCriteria:
      axisCount: 0
      buttonCount: 0
      disabled: 0
      tag: 
      hatCount: 0
      manufacturer_useRegex: 0
      productName_useRegex: 0
      systemName_useRegex: 0
      manufacturer: []
      productName: []
      systemName: []
      productGUID: []
    elements:
      axes: []
      buttons: []
    variants: []
  sdl2_OSX:
    description: 
    matchingCriteria:
      axisCount: 0
      buttonCount: 0
      disabled: 0
      tag: 
      hatCount: 0
      manufacturer_useRegex: 0
      productName_useRegex: 0
      systemName_useRegex: 0
      manufacturer: []
      productName: []
      systemName: []
      productGUID: []
    elements:
      axes: []
      buttons: []
    variants: []
  elementIdentifierIdCounter: 22
